<svg viewBox="0 0 28 28" fill="none" xmlns="http://www.w3.org/2000/svg" width="28" height="28">&gt;
    <circle cx="7" cy="11.375" r="2.5" stroke="currentColor" stroke-width="2"></circle>
    <path d="M4.375 21.875v-3.25a2 2 0 012-2H8.75m0 0v5.25m0-5.25l2.606 1.303a2 2 0 001.788 0l1.731-.866" stroke="currentColor" stroke-width="2" stroke-linecap="round"></path>
    <path d="M4.375 6.125h17.25a2 2 0 012 2V21" stroke="currentColor" stroke-width="2" stroke-linecap="round"></path>
    <path d="M12 22h13" stroke="currentColor" stroke-width="2" stroke-linecap="round"></path>
    <path d="M13.125 13.125h7" stroke="currentColor" stroke-width="2" stroke-linecap="round"></path>
    <path d="M13.125 9.625h2.625" stroke="currentColor" stroke-width="2" stroke-linecap="round"></path>
    <path d="M19.25 9.625h.875" stroke="currentColor" stroke-width="2" stroke-linecap="round"></path>
</svg>